{
  "main": {
    "id": "a392cfff5b9dab5e",
    "type": "split",
    "children": [
      {
        "id": "dc48da1ad98b1403",
        "type": "tabs",
        "children": [
          {
            "id": "70416dc0719c04ad",
            "type": "leaf",
            "state": {
              "type": "empty",
              "state": {}
            }
          }
        ]
      }
    ],
    "direction": "vertical"
  },
  "left": {
    "id": "f062585ba7bb8aeb",
    "type": "split",
    "children": [
      {
        "id": "4df46bad27e3c4b1",
        "type": "tabs",
        "children": [
          {
            "id": "ce91fd906252f021",
            "type": "leaf",
            "state": {
              "type": "file-explorer",
              "state": {
                "sortOrder": "alphabetical"
              }
            }
          },
          {
            "id": "2089d894a6d50d57",
            "type": "leaf",
            "state": {
              "type": "search",
              "state": {
                "query": "ray",
                "matchingCase": false,
                "explainSearch": false,
                "collapseAll": false,
                "extraContext": false,
                "sortOrder": "alphabetical"
              }
            }
          },
          {
            "id": "412f143c1a853e4d",
            "type": "leaf",
            "state": {
              "type": "starred",
              "state": {}
            }
          }
        ]
      }
    ],
    "direction": "horizontal",
    "width": 246.5
  },
  "right": {
    "id": "a8d09e3d89f9ec3f",
    "type": "split",
    "children": [
      {
        "id": "037dda9360229708",
        "type": "tabs",
        "children": [
          {
            "id": "2b3f5613a26c8b87",
            "type": "leaf",
            "state": {
              "type": "backlink",
              "state": {
                "collapseAll": false,
                "extraContext": false,
                "sortOrder": "alphabetical",
                "showSearch": false,
                "searchQuery": "",
                "backlinkCollapsed": false,
                "unlinkedCollapsed": false
              }
            }
          },
          {
            "id": "48724de93b9636ba",
            "type": "leaf",
            "state": {
              "type": "outgoing-link",
              "state": {
                "linksCollapsed": false,
                "unlinkedCollapsed": true
              }
            }
          },
          {
            "id": "b5617061e5a25d9d",
            "type": "leaf",
            "state": {
              "type": "tag",
              "state": {
                "sortOrder": "frequency",
                "useHierarchy": true
              }
            }
          },
          {
            "id": "df1d3a93b6da01fa",
            "type": "leaf",
            "state": {
              "type": "outline",
              "state": {}
            }
          }
        ]
      }
    ],
    "direction": "horizontal",
    "width": 194
  },
  "active": "70416dc0719c04ad",
  "lastOpenFiles": [
    "Culture of Gifting Objects and Labor.md",
    "Obligations towards the growth and evolution of society.md",
    "Arguments against lack of governmental structure (answered).md",
    "Mutual Aid and Open Source participant similarities.md",
    "Eric Raymond.md",
    "idle thoughts/(Idle) social expectations.md",
    "Work, output, and freedom.md",
    "Money and Morality.md",
    "Drive of Ownership in Open Source.md",
    "Free Agreement.md"
  ]
}